%YAML 1.1
%TAG !u! tag:unity3d.com,2011:
--- !u!114 &11400000
MonoBehaviour:
  m_ObjectHideFlags: 0
  m_CorrespondingSourceObject: {fileID: 0}
  m_PrefabInstance: {fileID: 0}
  m_PrefabAsset: {fileID: 0}
  m_GameObject: {fileID: 0}
  m_Enabled: 1
  m_EditorHideFlags: 0
  m_Script: {fileID: 11500000, guid: 28010c6c1d9744ac490d2c1b6746375f, type: 3}
  m_Name: 0ACAE166-91C8-4447-9A7C-E25685B9020D
  m_EditorClassIdentifier: 
  objectName: Jump
  id: 3833651337
  guid: 0ACAE166-91C8-4447-9A7C-E25685B9020D
