%YAML 1.1
%TAG !u! tag:unity3d.com,2011:
--- !u!114 &11400000
MonoBehaviour:
  m_ObjectHideFlags: 0
  m_CorrespondingSourceObject: {fileID: 0}
  m_PrefabInstance: {fileID: 0}
  m_PrefabAsset: {fileID: 0}
  m_GameObject: {fileID: 0}
  m_Enabled: 1
  m_EditorHideFlags: 0
  m_Script: {fileID: 11500000, guid: 28010c6c1d9744ac490d2c1b6746375f, type: 3}
  m_Name: 9A7019BA-E34A-4520-83B4-165D4E4758E8
  m_EditorClassIdentifier: 
  objectName: Reactor
  id: 2204642885
  guid: 9A7019BA-E34A-4520-83B4-165D4E4758E8
