%YAML 1.1
%TAG !u! tag:unity3d.com,2011:
--- !u!1 &6018435096400260509
GameObject:
  m_ObjectHideFlags: 0
  m_CorrespondingSourceObject: {fileID: 0}
  m_PrefabInstance: {fileID: 0}
  m_PrefabAsset: {fileID: 0}
  serializedVersion: 6
  m_Component:
  - component: {fileID: 7225603416818933987}
  - component: {fileID: 3357916422916339193}
  - component: {fileID: 5005190113254056406}
  m_Layer: 0
  m_Name: ProjectileShooter
  m_TagString: Untagged
  m_Icon: {fileID: 0}
  m_NavMeshLayer: 0
  m_StaticEditorFlags: 0
  m_IsActive: 1
--- !u!4 &7225603416818933987
Transform:
  m_ObjectHideFlags: 0
  m_CorrespondingSourceObject: {fileID: 0}
  m_PrefabInstance: {fileID: 0}
  m_PrefabAsset: {fileID: 0}
  m_GameObject: {fileID: 6018435096400260509}
  m_LocalRotation: {x: -0, y: -0, z: -0, w: 1}
  m_LocalPosition: {x: -0.67, y: 0.43, z: 0}
  m_LocalScale: {x: 1.3743138, y: 1.3743138, z: 1.2506254}
  m_Children: []
  m_Father: {fileID: 0}
  m_RootOrder: 0
  m_LocalEulerAnglesHint: {x: 0, y: 0, z: 0}
--- !u!114 &3357916422916339193
MonoBehaviour:
  m_ObjectHideFlags: 0
  m_CorrespondingSourceObject: {fileID: 0}
  m_PrefabInstance: {fileID: 0}
  m_PrefabAsset: {fileID: 0}
  m_GameObject: {fileID: 6018435096400260509}
  m_Enabled: 1
  m_EditorHideFlags: 0
  m_Script: {fileID: 11500000, guid: 060c02ab77ea49a4c95bcd9db907543e, type: 3}
  m_Name: 
  m_EditorClassIdentifier: 
  Target: {fileID: 0}
  ProjectilePool: {fileID: 5005190113254056406}
  ShootInterval: 1
--- !u!114 &5005190113254056406
MonoBehaviour:
  m_ObjectHideFlags: 0
  m_CorrespondingSourceObject: {fileID: 0}
  m_PrefabInstance: {fileID: 0}
  m_PrefabAsset: {fileID: 0}
  m_GameObject: {fileID: 6018435096400260509}
  m_Enabled: 1
  m_EditorHideFlags: 0
  m_Script: {fileID: 11500000, guid: 0b7277539b95c0d45895792ecc99ce66, type: 3}
  m_Name: 
  m_EditorClassIdentifier: 
  MutualizeWaitingPools: 0
  NestWaitingPool: 1
  GameObjectToPool: {fileID: 7127194548891633026, guid: 5a6db22c2650114428417dd7edb99a8a,
    type: 3}
  PoolSize: 20
  PoolCanExpand: 1
