%YAML 1.1
%TAG !u! tag:unity3d.com,2011:
--- !u!74 &7400000
AnimationClip:
  m_ObjectHideFlags: 0
  m_CorrespondingSourceObject: {fileID: 0}
  m_PrefabInstance: {fileID: 0}
  m_PrefabAsset: {fileID: 0}
  m_Name: Player1Idle
  serializedVersion: 6
  m_Legacy: 0
  m_Compressed: 0
  m_UseHighQualityCurve: 1
  m_RotationCurves: []
  m_CompressedRotationCurves: []
  m_EulerCurves: []
  m_PositionCurves: []
  m_ScaleCurves: []
  m_FloatCurves: []
  m_PPtrCurves:
  - curve:
    - time: 0
      value: {fileID: 21300000, guid: 9c967865acc99fa4b852f94f8541bd0f, type: 3}
    - time: 0.05
      value: {fileID: 21300000, guid: 53948cdabb5a0414f8817e5f0b5c879f, type: 3}
    - time: 0.1
      value: {fileID: 21300000, guid: 1182e390c390b2547bfb0947d38620a1, type: 3}
    - time: 0.15
      value: {fileID: 21300000, guid: 3a6ac000e39f9a44fa477e87e843d76b, type: 3}
    - time: 0.2
      value: {fileID: 21300000, guid: 084521712d115e448b592ef099c34e91, type: 3}
    - time: 0.25
      value: {fileID: 21300000, guid: 972d97808a4c8d740bb0ad85a2b1e42e, type: 3}
    - time: 0.3
      value: {fileID: 21300000, guid: 3c1f3676d41a1784492d8ef825decb90, type: 3}
    - time: 0.35
      value: {fileID: 21300000, guid: 9769c23e315424549bafe4920b1cb663, type: 3}
    - time: 0.4
      value: {fileID: 21300000, guid: 708acb9557a83ba45bc28056f7731877, type: 3}
    - time: 0.45
      value: {fileID: 21300000, guid: 15a68d2331fdb9b4c80ed9c6f5cd214a, type: 3}
    - time: 0.5
      value: {fileID: 21300000, guid: 8d63bda3afda79040afd0041b1daa247, type: 3}
    - time: 0.55
      value: {fileID: 21300000, guid: fe3b1d32fff7192468b5903a9fa9dae9, type: 3}
    - time: 0.6
      value: {fileID: 21300000, guid: b899550f51a0fbf439169ec6cfa17bdf, type: 3}
    - time: 0.65
      value: {fileID: 21300000, guid: 6075463e6c9d4d542bdaf0ed9ec8c3b7, type: 3}
    - time: 0.7
      value: {fileID: 21300000, guid: bc543a105f7715a4680f918a856391a2, type: 3}
    - time: 0.75
      value: {fileID: 21300000, guid: 761e0a6731ee0554587d26d65aaf933b, type: 3}
    - time: 0.8
      value: {fileID: 21300000, guid: 761e0a6731ee0554587d26d65aaf933b, type: 3}
    attribute: m_Sprite
    path: 
    classID: 212
    script: {fileID: 0}
  m_SampleRate: 60
  m_WrapMode: 0
  m_Bounds:
    m_Center: {x: 0, y: 0, z: 0}
    m_Extent: {x: 0, y: 0, z: 0}
  m_ClipBindingConstant:
    genericBindings:
    - serializedVersion: 2
      path: 0
      attribute: 0
      script: {fileID: 0}
      typeID: 212
      customType: 23
      isPPtrCurve: 1
    pptrCurveMapping:
    - {fileID: 21300000, guid: 9c967865acc99fa4b852f94f8541bd0f, type: 3}
    - {fileID: 21300000, guid: 53948cdabb5a0414f8817e5f0b5c879f, type: 3}
    - {fileID: 21300000, guid: 1182e390c390b2547bfb0947d38620a1, type: 3}
    - {fileID: 21300000, guid: 3a6ac000e39f9a44fa477e87e843d76b, type: 3}
    - {fileID: 21300000, guid: 084521712d115e448b592ef099c34e91, type: 3}
    - {fileID: 21300000, guid: 972d97808a4c8d740bb0ad85a2b1e42e, type: 3}
    - {fileID: 21300000, guid: 3c1f3676d41a1784492d8ef825decb90, type: 3}
    - {fileID: 21300000, guid: 9769c23e315424549bafe4920b1cb663, type: 3}
    - {fileID: 21300000, guid: 708acb9557a83ba45bc28056f7731877, type: 3}
    - {fileID: 21300000, guid: 15a68d2331fdb9b4c80ed9c6f5cd214a, type: 3}
    - {fileID: 21300000, guid: 8d63bda3afda79040afd0041b1daa247, type: 3}
    - {fileID: 21300000, guid: fe3b1d32fff7192468b5903a9fa9dae9, type: 3}
    - {fileID: 21300000, guid: b899550f51a0fbf439169ec6cfa17bdf, type: 3}
    - {fileID: 21300000, guid: 6075463e6c9d4d542bdaf0ed9ec8c3b7, type: 3}
    - {fileID: 21300000, guid: bc543a105f7715a4680f918a856391a2, type: 3}
    - {fileID: 21300000, guid: 761e0a6731ee0554587d26d65aaf933b, type: 3}
    - {fileID: 21300000, guid: 761e0a6731ee0554587d26d65aaf933b, type: 3}
  m_AnimationClipSettings:
    serializedVersion: 2
    m_AdditiveReferencePoseClip: {fileID: 0}
    m_AdditiveReferencePoseTime: 0
    m_StartTime: 0
    m_StopTime: 0.81666666
    m_OrientationOffsetY: 0
    m_Level: 0
    m_CycleOffset: 0
    m_HasAdditiveReferencePose: 0
    m_LoopTime: 1
    m_LoopBlend: 0
    m_LoopBlendOrientation: 0
    m_LoopBlendPositionY: 0
    m_LoopBlendPositionXZ: 0
    m_KeepOriginalOrientation: 0
    m_KeepOriginalPositionY: 1
    m_KeepOriginalPositionXZ: 0
    m_HeightFromFeet: 0
    m_Mirror: 0
  m_EditorCurves: []
  m_EulerEditorCurves: []
  m_HasGenericRootTransform: 0
  m_HasMotionFloatCurves: 0
  m_Events: []
